…
```{r load-data, cache.lazy = FALSE, eval = FALSE}
```

```{r tsibble, cache.lazy = FALSE, eval = FALSE}
```

```{r echo = TRUE, eval = FALSE}
flights %>% 
  as_tsibble(key = id(flight), 
    index = sched_dep_datetime, regular = FALSE)
```

```
*#> # A tsibble: 11,076,746 x 27 [!]
*#> # Keys:      flight [24,647]
#>    flight sched_dep_datetime  dep_time sched_dep_time
#>    <chr>  <dttm>                 <int>          <int>
#>  1 AA1    2016-01-01 09:00:00      856            900
#>  2 AA1    2016-01-02 09:00:00      857            900
#>  3 AA1    2016-01-03 09:00:00      913            900
#>  4 AA1    2016-01-04 09:00:00      903            900
#>  5 AA1    2016-01-05 09:00:00      850            900
#>  6 AA1    2016-01-06 09:00:00      855            900
#> # ... with 11,076,740 more rows, and 23 more variables:
#> #   dep_delay <dbl>, arr_time <int>, sched_arr_time <int>,
#> #   arr_delay <dbl>, carrier <chr>, tailnum <chr>,
#> #   origin <chr>, dest <chr>, air_time <dbl>,
#> #   distance <dbl>, origin_city_name <chr>,
#> #   origin_state <chr>, origin_state_name <chr>,
#> #   dest_city_name <chr>, dest_state <chr>,
#> #   dest_state_name <chr>, taxi_out <dbl>, taxi_in <dbl>,
#> #   carrier_delay <dbl>, weather_delay <dbl>,
…
